Offene SNF-Daten: Wer erhält Förderung? So berechnen Sie selber Detailzahlen
…
# Create a vector with institutions with more than 50 grants between 2011-2021
inst_above_50_grants <- grants %>% 
  # Subset project funding
  filter(FundingInstrumentLevel1 == "Projects") %>% 
  count(ResearchInstitution, sort = TRUE) %>% 
  # Keep only institutions with with more than 50 grants
  filter(n > 50)

inst_above_50_grants

## # A tibble: 22 × 2
##    ResearchInstitution                          n
##    <chr>                                    <int>
##  1 University of Zurich - ZH                 1568
##  2 ETH Zurich - ETHZ                         1565
##  3 University of Geneva - GE                 1228
##  4 EPF Lausanne - EPFL                       1158
##  5 University of Berne - BE                  1141
##  6 University of Lausanne - LA                947
##  7 University of Basel - BS                   910
##  8 University of Fribourg - FR                439
##  9 Paul Scherrer Institute - PSI              300
## 10 Università della Svizzera italiana - USI   240
## # … with 12 more rows
…
